1|Молоко|39.8|5
2|Сок|40.99|78
3|Хлеб|50.99|201
4|Конфета|60.99|1000
5|Печенье|70.99|100
6|Курица|80.99|20
7|Кока-кола|99.9|14
8|Яблоки|100.8|32
9|Морковь|15.05|17
10|Окорок|25.5|0
11|Солод|5.5|9
12|Шоколад|25.5|9